{
  "id": "swade",
  "title": "Savage Worlds Adventure Edition",
  "description": "<p>Published by <a href=\"https://peginc.com\">Pinnacle Entertainment Group, Inc.</a></p><p>A comprehensive game system for running <em>Savage Worlds Adventure Edition<em>.<br><p>Any time. Any place. <em>Savage Worlds</em>.</p>",
  "version": "3.2-dev",
  "compatibility": {
    "minimum": 11,
    "verified": 11,
    "maximum": 11
  },
  "authors": [
    {
      "name": "FloRad",
      "url": "https://gitlab.com/florad92",
      "discord": "FloRadical#2142"
    },
    {
      "name": "Joseph/ChaosOS",
      "url": "https://joseph-meehan.carrd.co/",
      "discord": "chaosos"
    }
  ],
  "esmodules": ["swade.js"],
  "styles": ["swade.css"],
  "packs": [
    {
      "name": "skills",
      "label": "Basic Skills",
      "system": "swade",
      "path": "packs/skills",
      "type": "Item"
    },
    {
      "name": "edges",
      "label": "Basic Edges",
      "system": "swade",
      "path": "packs/edges",
      "type": "Item"
    },
    {
      "name": "hindrances",
      "label": "Basic Hindrances",
      "system": "swade",
      "path": "packs/hindrances",
      "type": "Item"
    },
    {
      "name": "powers",
      "label": "Basic Powers",
      "system": "swade",
      "path": "packs/powers",
      "type": "Item"
    },
    {
      "name": "system-docs",
      "label": "System Documentation",
      "system": "swade",
      "path": "packs/system-docs",
      "type": "JournalEntry"
    }
  ],
  "packFolders": [
    {
      "name": "Savage Worlds System",
      "sorting": "a",
      "packs": ["skills", "edges", "hindrances", "powers", "system-docs"]
    }
  ],
  "languages": [
    {
      "lang": "en",
      "name": "English",
      "path": "lang/en.json"
    },
    {
      "lang": "de",
      "name": "Deutsch",
      "path": "lang/de.json"
    },
    {
      "lang": "es",
      "name": "Español",
      "path": "lang/es.json"
    },
    {
      "lang": "ca",
      "name": "Català",
      "path": "lang/ca.json"
    },
    {
      "lang": "gl",
      "name": "Galego",
      "path": "lang/gl.json"
    },
    {
      "lang": "eu",
      "name": "Euskera",
      "path": "lang/eu.json"
    },
    {
      "lang": "pt-BR",
      "name": "Português (Brasil)",
      "path": "lang/pt_BR.json"
    },
    {
      "lang": "fr",
      "name": "Française",
      "path": "lang/fr.json"
    },
    {
      "lang": "zh-Hans",
      "name": "Chinese (Simplified)",
      "path": "lang/zh_Hans.json"
    }
  ],
  "media": [
    {
      "type": "setup",
      "url": "systems/swade/assets/official/SWADE_Logo.webp",
      "thumbnail": "systems/swade/assets/official/SWADE_Logo.webp"
    }
  ],
  "flags": {
    "hotReload": {
      "extensions": ["js", "css", "html", "hbs", "json"],
      "paths": ["system/templates", "lang/en.json", "swade.js", "swade.css"]
    }
  },
  "socket": true,
  "gridDistance": 1,
  "gridUnits": "in",
  "manifest": "https://gitlab.com/api/v4/projects/16269883/packages/generic/swade/latest/system.json",
  "download": "This is auto replaced",
  "url": "https://gitlab.com/peginc/swade",
  "readme": "https://gitlab.com/peginc/swade/-/wikis/home",
  "bugs": "https://gitlab.com/peginc/swade/-/issues",
  "changelog": "https://gitlab.com/peginc/swade/-/releases",
  "license": "https://gitlab.com/peginc/swade/-/blob/master/LICENSE.md"
}
